…
2. How many genera and species are represented in the data? What are the total number of observations? Which species is most/ least frequently sampled in the study?

```r
deserts%>%
  count(species, genus, sort=T)
```

```
## # A tibble: 48 x 3
##    species      genus               n
##    <chr>        <chr>           <int>
##  1 merriami     Dipodomys       10596
##  2 penicillatus Chaetodipus      3123
##  3 ordii        Dipodomys        3027
##  4 baileyi      Chaetodipus      2891
##  5 megalotis    Reithrodontomys  2609
##  6 spectabilis  Dipodomys        2504
##  7 torridus     Onychomys        2249
##  8 flavus       Perognathus      1597
##  9 eremicus     Peromyscus       1299
## 10 albigula     Neotoma          1252
## # ... with 38 more rows
```
…
5. What is the range of weight for each species included in the study? Remove any observations of weight that are NA so they do not show up in the plot.

```r
deserts%>%
  filter(!is.na(weight))%>%
  group_by(species)%>%
  summarise(max_weight=max(weight),min_weight=min(weight))
```

```
## # A tibble: 22 x 3
##    species     max_weight min_weight
##    <chr>            <dbl>      <dbl>
##  1 albigula           280         30
##  2 baileyi             55         12
##  3 eremicus            40          8
##  4 flavus              25          4
##  5 fulvescens          20          9
##  6 fulviventer        199         24
##  7 hispidus           140         16
##  8 intermedius         21         17
##  9 leucogaster         56         10
## 10 leucopus            27          8
## # ... with 12 more rows
```
…
9. Which two species have, on average, the highest weight? Once you have identified them, make a new column that is a ratio of `weight` to `hindfoot_length`. Make a plot that shows the range of this new ratio and fill by sex.

```r
deserts%>%
  group_by(species)%>%
  summarise(mean_weight=mean(weight, na.rm=T))%>%
  arrange(desc(mean_weight))
```

```
## # A tibble: 40 x 2
##    species      mean_weight
##    <chr>              <dbl>
##  1 albigula           159. 
##  2 spectabilis        120. 
##  3 spilosoma           93.5
##  4 hispidus            65.6
##  5 fulviventer         58.9
##  6 ochrognathus        55.4
##  7 ordii               48.9
##  8 merriami            43.2
##  9 baileyi             31.7
## 10 leucogaster         31.6
## # ... with 30 more rows
```
…
