…
```
## [1] 203
```

```r
fisheries_tidy%>%
  count(country)
```

```
## # A tibble: 203 x 2
##    country                 n
##    <fct>               <int>
##  1 Albania               934
##  2 Algeria              1561
##  3 American Samoa        556
##  4 Angola               2119
##  5 Anguilla              129
##  6 Antigua and Barbuda   356
##  7 Argentina            3403
##  8 Aruba                 172
##  9 Australia            8183
## 10 Bahamas               423
## # ... with 193 more rows
```
#### 203 countries in total. 

4. Refocus the data only to include country, isscaap_taxonomic_group, asfis_species_name, asfis_species_number, year, catch.

```r
fisheries_tidy%>%
  select(country, isscaap_taxonomic_group, asfis_species_name, asfis_species_number, year, catch)
```

```
## # A tibble: 376,771 x 6
##    country isscaap_taxonomic_g~ asfis_species_na~ asfis_species_num~  year catch
##    <fct>   <chr>                <chr>             <fct>              <dbl> <dbl>
##  1 Albania Sharks, rays, chima~ Squatinidae       10903XXXXX          1995    NA
##  2 Albania Sharks, rays, chima~ Squatinidae       10903XXXXX          1996    53
##  3 Albania Sharks, rays, chima~ Squatinidae       10903XXXXX          1997    20
##  4 Albania Sharks, rays, chima~ Squatinidae       10903XXXXX          1998    31
##  5 Albania Sharks, rays, chima~ Squatinidae       10903XXXXX          1999    30
##  6 Albania Sharks, rays, chima~ Squatinidae       10903XXXXX          2000    30
##  7 Albania Sharks, rays, chima~ Squatinidae       10903XXXXX          2001    16
##  8 Albania Sharks, rays, chima~ Squatinidae       10903XXXXX          2002    79
##  9 Albania Sharks, rays, chima~ Squatinidae       10903XXXXX          2003     1
## 10 Albania Sharks, rays, chima~ Squatinidae       10903XXXXX          2004     4
## # ... with 376,761 more rows
```
…
7. Which country caught the most sardines (_Sardina pilchardus_) between the years 1990-2000?

```r
fisheries_tidy%>%
  filter(between(year,1990,2000))%>%
  filter(asfis_species_name=="Sardina pilchardus")%>%
  group_by(country)%>%
  summarise(total_catch=sum(catch, na.rm=TRUE))%>%
  arrange(desc(total_catch))
```

```
## # A tibble: 37 x 2
##    country               total_catch
##    <fct>                       <dbl>
##  1 Morocco                      7470
##  2 Spain                        3507
##  3 Russian Federation           1639
##  4 Ukraine                      1030
##  5 France                        966
##  6 Portugal                      818
##  7 Greece                        528
##  8 Italy                         507
##  9 Serbia and Montenegro         478
## 10 Denmark                       477
## # ... with 27 more rows
```
…
10. Use the data to do at least one analysis of your choice.

```r
annual_catch<-fisheries_tidy%>%
  group_by(country)%>%
  summarise(total_catch=sum(catch, na.rm=TRUE), time=n_distinct(year, na.rm=TRUE))%>%
  mutate(annual_fishing=total_catch/time)%>%
  arrange(desc(annual_fishing))%>%
  print()
```

```
## # A tibble: 203 x 4
##    country                  total_catch  time annual_fishing
##    <fct>                          <dbl> <int>          <dbl>
##  1 Japan                         814843    63         12934.
##  2 China                         735938    63         11682.
##  3 Russian Federation            270219    25         10809.
##  4 United States of America      623994    63          9905.
##  5 Peru                          599508    63          9516 
##  6 Un. Sov. Soc. Rep.            360127    42          8574.
##  7 Chile                         366808    63          5822.
##  8 Norway                        300947    63          4777.
##  9 Korea, Republic of            253734    63          4028.
## 10 Indonesia                     253476    63          4023.
## # ... with 193 more rows
```
…
