…
```r
gapminder%>%
  group_by(continent, year)%>%
  summarise(annual_mean=mean(lifeExp), 
            annual_min=min(lifeExp), 
            annual_max=max(lifeExp))
```

```
## `summarise()` has grouped output by 'continent'. You can override using the `.groups` argument.
```

```
## # A tibble: 60 x 5
## # Groups:   continent [5]
##    continent year  annual_mean annual_min annual_max
##    <fct>     <fct>       <dbl>      <dbl>      <dbl>
##  1 Africa    1952         39.1       30         52.7
##  2 Africa    1957         41.3       31.6       58.1
##  3 Africa    1962         43.3       32.8       60.2
##  4 Africa    1967         45.3       34.1       61.6
##  5 Africa    1972         47.5       35.4       64.3
##  6 Africa    1977         49.6       36.8       67.1
##  7 Africa    1982         51.6       38.4       69.9
##  8 Africa    1987         53.3       39.9       71.9
##  9 Africa    1992         53.6       23.6       73.6
## 10 Africa    1997         53.6       36.1       74.8
## # ... with 50 more rows
```
…
**7. Which countries have had the largest population growth since 1952?**

```r
gapminder%>%
  select(country, year, pop)%>%
  pivot_wider(names_from = year, 
              values_from = pop)%>%
  mutate(pop_growth=`2007`-`1952`)%>%
  select(country, pop_growth)%>%
  arrange(desc(pop_growth))
```

```
## # A tibble: 142 x 2
##    country       pop_growth
##    <fct>              <int>
##  1 China          762419569
##  2 India          738396331
##  3 United States  143586947
##  4 Indonesia      141495000
##  5 Brazil         133408087
##  6 Pakistan       127924057
##  7 Bangladesh     103561480
##  8 Nigeria        101912068
##  9 Mexico          78556574
## 10 Philippines     68638596
## # ... with 132 more rows
```
…
