…
```
## # A tibble: 1 x 1
##   n_country
##       <int>
## 1       195
```

```r
population%>%
  count(country)%>%
  select(country)
```

```
## # A tibble: 195 x 1
##    country            
##    <chr>              
##  1 Afghanistan        
##  2 Albania            
##  3 Algeria            
##  4 Andorra            
##  5 Angola             
##  6 Antigua and Barbuda
##  7 Argentina          
##  8 Armenia            
##  9 Australia          
## 10 Austria            
## # ... with 185 more rows
```
…
```
## # A tibble: 1 x 1
##   n_country
##       <int>
## 1       193
```

```r
income%>%
  count(country)%>%
  select(country)
```

```
## # A tibble: 193 x 1
##    country            
##    <chr>              
##  1 Afghanistan        
##  2 Albania            
##  3 Algeria            
##  4 Andorra            
##  5 Angola             
##  6 Antigua and Barbuda
##  7 Argentina          
##  8 Armenia            
##  9 Australia          
## 10 Austria            
## # ... with 183 more rows
```
…
```
## # A tibble: 1 x 1
##   n_country
##       <int>
## 1       187
```

```r
life%>%
  count(country)%>%
  select(country)
```

```
## # A tibble: 187 x 1
##    country            
##    <chr>              
##  1 Afghanistan        
##  2 Albania            
##  3 Algeria            
##  4 Andorra            
##  5 Angola             
##  6 Antigua and Barbuda
##  7 Argentina          
##  8 Armenia            
##  9 Australia          
## 10 Austria            
## # ... with 177 more rows
```

## Life Expectancy  

3. (2 points) Let's limit the data to 100 years (1920-2020). For these years, which country has the highest average life expectancy? How about the lowest average life expectancy?  

```r
life%>%
  filter(year >= 1920 & year <= 2020)%>%
  group_by(country)%>%
  summarise(average = mean(expectancy, na.rm=T))%>%
  arrange(average)
```

```
## # A tibble: 187 x 2
##    country                  average
##    <chr>                      <dbl>
##  1 Central African Republic    41.8
##  2 Mali                        41.8
##  3 Ethiopia                    42.6
##  4 Sierra Leone                42.6
##  5 Guinea-Bissau               42.6
##  6 Burundi                     42.8
##  7 Malawi                      42.8
##  8 Uganda                      43.3
##  9 Eritrea                     43.4
## 10 Yemen                       43.6
## # ... with 177 more rows
```
…
```r
life_expectancy_100 <- life%>%
  filter(year >= 1920 & year <= 2020)
population_100 <- population %>%
  filter(year >= 1920 & year <= 2020)
income_100 <- income %>%
  filter(year >= 1920 & year <= 2020)
gapminder_join <- inner_join(life_expectancy_100, population_100, by= c("country", "year"))
gapminder_join <- inner_join(gapminder_join, income_100, by= c("country", "year"))
gapminder_join
```

```
## # A tibble: 18,887 x 5
##    country      year expectancy population gdp_per_capita
##    <chr>       <dbl>      <dbl>      <dbl>          <dbl>
##  1 Afghanistan  1920       30.6   10600000           1490
##  2 Afghanistan  1921       30.7   10500000           1520
##  3 Afghanistan  1922       30.8   10300000           1550
##  4 Afghanistan  1923       30.8    9710000           1570
##  5 Afghanistan  1924       30.9    9200000           1600
##  6 Afghanistan  1925       31      8720000           1630
##  7 Afghanistan  1926       31      8260000           1650
##  8 Afghanistan  1927       31.1    7830000           1680
##  9 Afghanistan  1928       31.1    7420000           1710
## 10 Afghanistan  1929       31.2    7100000           1740
## # ... with 18,877 more rows
```
…
