…
```r
sydneybeaches
```

```
## # A tibble: 3,690 x 8
##    BeachId Region        Council Site  Longitude Latitude Date  `Enterococci (~`
##      <dbl> <chr>         <chr>   <chr>     <dbl>    <dbl> <chr>            <dbl>
##  1      25 Sydney City ~ Randwi~ Clov~      151.    -33.9 02/0~               19
##  2      25 Sydney City ~ Randwi~ Clov~      151.    -33.9 06/0~                3
##  3      25 Sydney City ~ Randwi~ Clov~      151.    -33.9 12/0~                2
##  4      25 Sydney City ~ Randwi~ Clov~      151.    -33.9 18/0~               13
##  5      25 Sydney City ~ Randwi~ Clov~      151.    -33.9 30/0~                8
##  6      25 Sydney City ~ Randwi~ Clov~      151.    -33.9 05/0~                7
##  7      25 Sydney City ~ Randwi~ Clov~      151.    -33.9 11/0~               11
##  8      25 Sydney City ~ Randwi~ Clov~      151.    -33.9 23/0~               97
##  9      25 Sydney City ~ Randwi~ Clov~      151.    -33.9 07/0~                3
## 10      25 Sydney City ~ Randwi~ Clov~      151.    -33.9 25/0~                0
## # ... with 3,680 more rows
```
…
2. Are these data "tidy" per the definitions of the tidyverse? How do you know? Are they in wide or long format?

#### I think this data frame is too wide because the information of region just repeatedly occur to cater to the existence of one column to store the information *date*. I think, different dates can be put into different columns to make the frame wider and more readable. 

3. We are only interested in the variables site, date, and enterococci_cfu_100ml. Make a new object focused on these variables only. Name the object `sydneybeaches_long`

```r
sydneybeaches_long <- sydneybeaches%>%
  select(site, date, enterococci_cfu_100ml)
sydneybeaches_long
```

```
## # A tibble: 3,690 x 3
##    site           date       enterococci_cfu_100ml
##    <chr>          <chr>                      <dbl>
##  1 Clovelly Beach 02/01/2013                    19
##  2 Clovelly Beach 06/01/2013                     3
##  3 Clovelly Beach 12/01/2013                     2
##  4 Clovelly Beach 18/01/2013                    13
##  5 Clovelly Beach 30/01/2013                     8
##  6 Clovelly Beach 05/02/2013                     7
##  7 Clovelly Beach 11/02/2013                    11
##  8 Clovelly Beach 23/02/2013                    97
##  9 Clovelly Beach 07/03/2013                     3
## 10 Clovelly Beach 25/03/2013                     0
## # ... with 3,680 more rows
```
…
7. What is the average `enterococci_cfu_100ml` by year for each beach. Think about which data you will use- long or wide.

```r
sydneybeaches_long %>%
  select(site, year, enterococci_cfu_100ml)%>%
  unite("category", c("site", "year"), sep="_")%>%
  group_by(category)%>%
  filter(!is.na(enterococci_cfu_100ml))%>%
  summarise(annual_mean=mean(enterococci_cfu_100ml, na.rm = TRUE))%>%
  separate(category, into = c("site", "year"), sep = "_")
```

```
## # A tibble: 66 x 3
##    site         year  annual_mean
##    <chr>        <chr>       <dbl>
##  1 Bondi Beach  2013         32.2
##  2 Bondi Beach  2014         11.1
##  3 Bondi Beach  2015         14.3
##  4 Bondi Beach  2016         19.4
##  5 Bondi Beach  2017         13.2
##  6 Bondi Beach  2018         22.9
##  7 Bronte Beach 2013         26.8
##  8 Bronte Beach 2014         17.5
##  9 Bronte Beach 2015         23.6
## 10 Bronte Beach 2016         61.3
## # ... with 56 more rows
```
…
